{
	"info": {
		"_postman_id": "80560405-e8d4-46f9-928c-cd3db03d7b6a",
		"name": "mainzelliste_oauth_invalid_claims_not_exist",
		"schema": "https://schema.getpostman.com/json/collection/v2.1.0/collection.json"
	},
	"item": [
		{
			"name": "Auth0 Authentication",
			"event": [
				{
					"listen": "test",
					"script": {
						"id": "51edf498-94e7-4fd8-af19-453c5b13f029",
						"exec": [
							"console.log(\"Authentication\")",
							"",
							"",
							"var Ajv = require('ajv'),",
							"    ajv = new Ajv({logger: console}),",
							"    schema = {",
							"        \"properties\": {",
							"            \"access_token\": {",
							"                \"type\": \"string\"",
							"            },",
							"            \"expires_in\": {",
							"                \"type\": \"number\"",
							"            },",
							"             \"token_type\": {",
							"                \"type\": \"string\"",
							"            },",
							"            \"id_token\": {",
							"                \"type\": \"string\"",
							"            },",
							"             \"scope\": {",
							"                \"type\": \"string\"",
							"            }",
							"        }",
							"    };",
							"",
							"pm.test(\"Check StatusCode\", function(){",
							"    pm.response.to.have.status(\"OK\");",
							"});",
							"",
							"pm.test(\"Check ResponseSchema\", function(){",
							"     var jsonData = pm.response.json();",
							"     console.log(jsonData.access_token)",
							"     pm.expect(ajv.validate(schema, jsonData)).to.be.true;",
							"     pm.collectionVariables.set(\"access_token\", jsonData.access_token);",
							"});",
							""
						],
						"type": "text/javascript"
					}
				}
			],
			"request": {
				"method": "POST",
				"header": [
					{
						"key": "response_type",
						"value": "token",
						"type": "text"
					}
				],
				"body": {
					"mode": "raw",
					"raw": "{\"client_id\":\"CYYmWTcDvVNDbo8N5y1JbGti43AY8N0G\",\"client_secret\":\"mfwmbaHA-sbq-O-6VNyQfP_0ZWPXOTYGr5-zRMkUcLgZkE9u4c0bwVwVICaHIO6L\",\"audience\":\"audience\",\"grant_type\":\"password\",\n\"username\": \"mainzelliste@test.de\", \"password\": \",<U~,8gp\", \"scope\": \"openid\", \"response_type\": \"token\"\n}",
					"options": {
						"raw": {
							"language": "json"
						}
					}
				},
				"url": {
					"raw": "https://dev-ptsul9wq.eu.auth0.com/oauth/token",
					"protocol": "https",
					"host": [
						"dev-ptsul9wq",
						"eu",
						"auth0",
						"com"
					],
					"path": [
						"oauth",
						"token"
					]
				}
			},
			"response": []
		},
		{
			"name": "NEW_SESSION - Sitzung anlegen",
			"event": [
				{
					"listen": "test",
					"script": {
						"id": "91e7342e-19f3-4f2c-b0b4-bb9b067a6fd3",
						"exec": [
							"console.log(\"New Session\")",
							"",
							"",
							"var Ajv = require('ajv'),",
							"    ajv = new Ajv({logger: console}),",
							"    schema = {",
							"        \"properties\": {",
							"            \"sessionId\": {",
							"                \"type\": \"string\"",
							"            },",
							"            \"uri\": {",
							"                \"type\": \"string\"",
							"            }",
							"        }",
							"    };",
							"",
							"pm.test(\"Check StatusCode\", function(){",
							"    pm.response.to.have.status(401);",
							"});",
							"",
							"pm.test(\"Check ResponseSchema\", function(){",
							"      pm.expect(pm.response.text()).to.include(\"Access token could not been validated\")",
							"});",
							"",
							"",
							"",
							"",
							"",
							""
						],
						"type": "text/javascript"
					}
				},
				{
					"listen": "prerequest",
					"script": {
						"id": "c246c19c-5c22-42d9-af42-3ec442abb46e",
						"exec": [
							""
						],
						"type": "text/javascript"
					}
				}
			],
			"request": {
				"auth": {
					"type": "oauth2",
					"oauth2": [
						{
							"key": "accessToken",
							"value": "{{access_token}}",
							"type": "string"
						},
						{
							"key": "tokenType",
							"value": "Bearer",
							"type": "string"
						},
						{
							"key": "addTokenTo",
							"value": "header",
							"type": "string"
						}
					]
				},
				"method": "POST",
				"header": [
					{
						"key": "mainzellisteApiKey",
						"value": "{{mainzellisteApiKey}}",
						"disabled": true
					},
					{
						"key": "mainzellisteApiVersion",
						"value": "{{mainzellisteApiVersion}}"
					}
				],
				"url": {
					"raw": "{{url}}/sessions",
					"host": [
						"{{url}}"
					],
					"path": [
						"sessions"
					]
				}
			},
			"response": []
		}
	],
	"event": [
		{
			"listen": "prerequest",
			"script": {
				"id": "8863a7aa-5f63-4fed-8a46-e59f8838f835",
				"type": "text/javascript",
				"exec": [
					""
				]
			}
		},
		{
			"listen": "test",
			"script": {
				"id": "825502d6-f63e-448d-a7b0-109b87ff14b7",
				"type": "text/javascript",
				"exec": [
					""
				]
			}
		}
	],
	"variable": [
		{
			"id": "c72f3f46-7f6f-4fd8-9d7a-1391e99f5152",
			"key": "access_token",
			"value": ""
		}
	],
	"protocolProfileBehavior": {}
}